{
    "paging": {
        "page": 1,
        "total": 7273,
        "page_size": 20,
        "pages": 364
    },
    "loans": [
        {
            "id": 2161033,
            "name": "Marwan",
            "description": {
                "languages": [
                    "en"
                ]
            },
            "status": "fundraising",
            "funded_amount": 0,
            "basket_amount": 0,
            "image": {
                "id": 4292682,
                "template_id": 1
            },
            "activity": "Higher education costs",
            "sector": "Education",
            "themes": [
                "Higher Education"
            ],
            "use": "to pay his university tuition fee for a bachelor's degree in Communications.",
            "location": {
                "country_code": "JO",
                "country": "Jordan",
                "town": "Irbid",
                "geo": {
                    "level": "town",
                    "pairs": "32.556956 35.847909",
                    "type": "point"
                }
            },
            "partner_id": 185,
            "posted_date": "2021-05-02T09:30:10Z",
            "planned_expiration_date": "2021-06-01T09:30:10Z",
            "loan_amount": 575,
            "borrower_count": 1,
            "lender_count": 0,
            "bonus_credit_eligibility": true,
            "tags": []
        },
        {
            "id": 2160778,
            "name": "Sandra Milena",
            "description": {
                "languages": [
                    "es",
                    "en"
                ]
            },
            "status": "fundraising",
            "funded_amount": 0,
            "basket_amount": 0,
            "image": {
                "id": 4291978,
                "template_id": 1
            },
            "activity": "Services",
            "sector": "Services",
            "themes": [
                "Vulnerable Groups"
            ],
            "use": "to increase working capital and buy products such as oils, filters, shampoo, wax, soaps, and other card cleaning supplies.",
            "location": {
                "country_code": "CO",
                "country": "Colombia",
                "town": "Cartagena de Indias",
                "geo": {
                    "level": "town",
                    "pairs": "10.391049 -75.479426",
                    "type": "point"
                }
            },
            "partner_id": 154,
            "posted_date": "2021-05-02T07:50:08Z",
            "planned_expiration_date": "2021-06-01T07:50:08Z",
            "loan_amount": 875,
            "borrower_count": 1,
            "lender_count": 0,
            "bonus_credit_eligibility": false,
            "tags": []
        },
        {
            "id": 2159873,
            "name": "Dori Elizabeth",
            "description": {
                "languages": [
                    "es",
                    "en"
                ]
            },
            "status": "fundraising",
            "funded_amount": 0,
            "basket_amount": 0,
            "image": {
                "id": 4290970,
                "template_id": 1
            },
            "activity": "Grocery Store",
            "sector": "Food",
            "use": "to buy rice, corn, beans, dairy products, meat, soft drinks, and snacks foods.",
            "location": {
                "country_code": "HN",
                "country": "Honduras",
                "town": "La Ceiba, Atlantida",
                "geo": {
                    "level": "town",
                    "pairs": "15.770288 -86.791901",
                    "type": "point"
                }
            },
            "partner_id": 201,
            "posted_date": "2021-05-02T07:30:13Z",
            "planned_expiration_date": "2021-06-01T07:30:12Z",
            "loan_amount": 475,
            "borrower_count": 1,
            "lender_count": 0,
            "bonus_credit_eligibility": true,
            "tags": [
                {
                    "name": "#Woman-Owned Business",
                    "id": "6"
                },
                {
                    "name": "#Elderly",
                    "id": "13"
                }
            ]
        },
        {
            "id": 2160781,
            "name": "Mar\u00eda Ester",
            "description": {
                "languages": [
                    "es",
                    "en"
                ]
            },
            "status": "fundraising",
            "funded_amount": 0,
            "basket_amount": 0,
            "image": {
                "id": 4291981,
                "template_id": 1
            },
            "activity": "Clothing Sales",
            "sector": "Clothing",
            "themes": [
                "Vulnerable Groups"
            ],
            "use": "to buy a wider variety of clothes to sell.",
            "location": {
                "country_code": "SV",
                "country": "El Salvador",
                "town": "Zacatecoluca",
                "geo": {
                    "level": "town",
                    "pairs": "13.512239 -88.869495",
                    "type": "point"
                }
            },
            "partner_id": 199,
            "posted_date": "2021-05-02T07:30:12Z",
            "planned_expiration_date": "2021-06-01T07:30:12Z",
            "loan_amount": 1000,
            "borrower_count": 1,
            "lender_count": 0,
            "bonus_credit_eligibility": true,
            "tags": [
                {
                    "name": "#Woman-Owned Business",
                    "id": "6"
                }
            ]
        },
        {
            "id": 2161019,
            "name": "Kea",
            "description": {
                "languages": [
                    "en"
                ]
            },
            "status": "fundraising",
            "funded_amount": 0,
            "basket_amount": 0,
            "image": {
                "id": 4292640,
                "template_id": 1
            },
            "activity": "Personal Housing Expenses",
            "sector": "Housing",
            "themes": [
                "International COVID-19 support",
                "Disaster recovery"
            ],
            "use": "to buy construction supplies such as cement, sand, and other materials for renovating her house.",
            "location": {
                "country_code": "KH",
                "country": "Cambodia",
                "town": "Prey Veng Province",
                "geo": {
                    "level": "town",
                    "pairs": "11.5 105.5",
                    "type": "point"
                }
            },
            "partner_id": 9,
            "posted_date": "2021-05-02T07:30:05Z",
            "planned_expiration_date": "2021-06-01T07:30:05Z",
            "loan_amount": 1975,
            "borrower_count": 1,
            "lender_count": 0,
            "bonus_credit_eligibility": false,
            "tags": []
        },
        {
            "id": 2161028,
            "name": "Thoeun",
            "description": {
                "languages": [
                    "en"
                ]
            },
            "status": "fundraising",
            "funded_amount": 0,
            "basket_amount": 0,
            "image": {
                "id": 4292655,
                "template_id": 1
            },
            "activity": "Agriculture",
            "sector": "Agriculture",
            "themes": [
                "International COVID-19 support",
                "Disaster recovery"
            ],
            "use": "to support her business raise more animals, cow, and pigs.",
            "location": {
                "country_code": "KH",
                "country": "Cambodia",
                "town": "Siem Reap Province",
                "geo": {
                    "level": "town",
                    "pairs": "13.691538 104.100133",
                    "type": "point"
                }
            },
            "partner_id": 9,
            "posted_date": "2021-05-02T07:30:05Z",
            "planned_expiration_date": "2021-06-01T07:30:05Z",
            "loan_amount": 1250,
            "borrower_count": 1,
            "lender_count": 0,
            "bonus_credit_eligibility": true,
            "tags": []
        },
        {
            "id": 2161029,
            "name": "Kiman",
            "description": {
                "languages": [
                    "en"
                ]
            },
            "status": "fundraising",
            "funded_amount": 125,
            "basket_amount": 0,
            "image": {
                "id": 4292656,
                "template_id": 1
            },
            "activity": "Agriculture",
            "sector": "Agriculture",
            "themes": [
                "International COVID-19 support",
                "Disaster recovery"
            ],
            "use": "to support her business of raising extra animals, such as cow and pigs.",
            "location": {
                "country_code": "KH",
                "country": "Cambodia",
                "town": "Siem Reap Province",
                "geo": {
                    "level": "town",
                    "pairs": "13.691538 104.100133",
                    "type": "point"
                }
            },
            "partner_id": 9,
            "posted_date": "2021-05-02T07:30:05Z",
            "planned_expiration_date": "2021-06-01T07:30:05Z",
            "loan_amount": 375,
            "borrower_count": 1,
            "lender_count": 3,
            "bonus_credit_eligibility": true,
            "tags": []
        },
        {
            "id": 2161030,
            "name": "Chek",
            "description": {
                "languages": [
                    "en"
                ]
            },
            "status": "fundraising",
            "funded_amount": 0,
            "basket_amount": 0,
            "image": {
                "id": 4292658,
                "template_id": 1
            },
            "activity": "Agriculture",
            "sector": "Agriculture",
            "themes": [
                "International COVID-19 support",
                "Disaster recovery"
            ],
            "use": "to support her business of raising extra animals, such as cows and pigs.",
            "location": {
                "country_code": "KH",
                "country": "Cambodia",
                "town": "Siem Reap Province",
                "geo": {
                    "level": "town",
                    "pairs": "13.691538 104.100133",
                    "type": "point"
                }
            },
            "partner_id": 9,
            "posted_date": "2021-05-02T07:30:05Z",
            "planned_expiration_date": "2021-06-01T07:30:05Z",
            "loan_amount": 1500,
            "borrower_count": 1,
            "lender_count": 0,
            "bonus_credit_eligibility": true,
            "tags": []
        },
        {
            "id": 2160656,
            "name": "Ana Del Carmen",
            "description": {
                "languages": [
                    "es",
                    "en"
                ]
            },
            "status": "fundraising",
            "funded_amount": 25,
            "basket_amount": 0,
            "image": {
                "id": 4291818,
                "template_id": 1
            },
            "activity": "General Store",
            "sector": "Retail",
            "themes": [
                "International COVID-19 support",
                "Disaster recovery"
            ],
            "use": "to buy corn, beans, rice, sugar, coffee, snack foods, and other products to sell at her store.",
            "location": {
                "country_code": "SV",
                "country": "El Salvador",
                "town": "Ciudad El Triunfo",
                "geo": {
                    "level": "town",
                    "pairs": "13.559023 -88.428272",
                    "type": "point"
                }
            },
            "partner_id": 199,
            "posted_date": "2021-05-02T07:10:11Z",
            "planned_expiration_date": "2021-06-01T07:10:11Z",
            "loan_amount": 800,
            "borrower_count": 1,
            "lender_count": 1,
            "bonus_credit_eligibility": true,
            "tags": [
                {
                    "name": "#Woman-Owned Business",
                    "id": "6"
                },
                {
                    "name": "#Single Parent",
                    "id": "17"
                }
            ]
        },
        {
            "id": 2161014,
            "name": "My",
            "description": {
                "languages": [
                    "en"
                ]
            },
            "status": "fundraising",
            "funded_amount": 0,
            "basket_amount": 0,
            "image": {
                "id": 4292635,
                "template_id": 1
            },
            "activity": "Grocery Store",
            "sector": "Food",
            "themes": [
                "International COVID-19 support",
                "Disaster recovery"
            ],
            "use": "to purchase more inventory for her grocery store.",
            "location": {
                "country_code": "KH",
                "country": "Cambodia",
                "town": "Prey Veng Province",
                "geo": {
                    "level": "town",
                    "pairs": "11.5 105.5",
                    "type": "point"
                }
            },
            "partner_id": 9,
            "posted_date": "2021-05-02T07:10:04Z",
            "planned_expiration_date": "2021-06-01T07:10:04Z",
            "loan_amount": 2000,
            "borrower_count": 1,
            "lender_count": 0,
            "bonus_credit_eligibility": false,
            "tags": [
                {
                    "name": "#Woman-Owned Business",
                    "id": "6"
                },
                {
                    "name": "#Parent",
                    "id": "16"
                }
            ]
        },
        {
            "id": 2161022,
            "name": "Khmom",
            "description": {
                "languages": [
                    "en"
                ]
            },
            "status": "fundraising",
            "funded_amount": 0,
            "basket_amount": 0,
            "image": {
                "id": 4292643,
                "template_id": 1
            },
            "activity": "Farming",
            "sector": "Agriculture",
            "themes": [
                "International COVID-19 support",
                "Disaster recovery"
            ],
            "use": "to buy farming inputs that she plans to use to improve her rice crop.",
            "location": {
                "country_code": "KH",
                "country": "Cambodia",
                "town": "Prey Veng Province",
                "geo": {
                    "level": "town",
                    "pairs": "11.5 105.5",
                    "type": "point"
                }
            },
            "partner_id": 9,
            "posted_date": "2021-05-02T07:10:04Z",
            "planned_expiration_date": "2021-06-01T07:10:04Z",
            "loan_amount": 625,
            "borrower_count": 1,
            "lender_count": 0,
            "bonus_credit_eligibility": false,
            "tags": []
        },
        {
            "id": 2161024,
            "name": "Sinan",
            "description": {
                "languages": [
                    "en"
                ]
            },
            "status": "fundraising",
            "funded_amount": 50,
            "basket_amount": 0,
            "image": {
                "id": 4292647,
                "template_id": 1
            },
            "activity": "Farming",
            "sector": "Agriculture",
            "use": "to buy fertilizers, pesticides and other important farm inputs that have become more accessible.",
            "location": {
                "country_code": "KH",
                "country": "Cambodia",
                "town": "Siem Reap Province",
                "geo": {
                    "level": "town",
                    "pairs": "13.691538 104.100133",
                    "type": "point"
                }
            },
            "partner_id": 9,
            "posted_date": "2021-05-02T07:10:04Z",
            "planned_expiration_date": "2021-06-01T07:10:04Z",
            "loan_amount": 1000,
            "borrower_count": 1,
            "lender_count": 2,
            "bonus_credit_eligibility": true,
            "tags": []
        },
        {
            "id": 2161027,
            "name": "Rath",
            "description": {
                "languages": [
                    "en"
                ]
            },
            "status": "fundraising",
            "funded_amount": 150,
            "basket_amount": 50,
            "image": {
                "id": 4292652,
                "template_id": 1
            },
            "activity": "Funerals",
            "sector": "Personal Use",
            "themes": [
                "International COVID-19 support",
                "Disaster recovery"
            ],
            "use": "to provide assistance for her brother's funeral.",
            "location": {
                "country_code": "KH",
                "country": "Cambodia",
                "town": "Siem Reap Province",
                "geo": {
                    "level": "town",
                    "pairs": "13.691538 104.100133",
                    "type": "point"
                }
            },
            "partner_id": 9,
            "posted_date": "2021-05-02T07:10:04Z",
            "planned_expiration_date": "2021-06-01T07:10:04Z",
            "loan_amount": 375,
            "borrower_count": 1,
            "lender_count": 6,
            "bonus_credit_eligibility": true,
            "tags": []
        },
        {
            "id": 2160776,
            "name": "Magali",
            "description": {
                "languages": [
                    "es",
                    "en"
                ]
            },
            "status": "fundraising",
            "funded_amount": 275,
            "basket_amount": 25,
            "image": {
                "id": 4291976,
                "template_id": 1
            },
            "activity": "Farming",
            "sector": "Agriculture",
            "themes": [
                "Earth Day Campaign",
                "Fair Trade",
                "Green"
            ],
            "use": "to buy composts and to pay workers to remove weeds from her coffee farm.",
            "location": {
                "country_code": "PE",
                "country": "Peru",
                "town": "Yungaysuyo-Lonya Grande-Amazonas",
                "geo": {
                    "level": "town",
                    "pairs": "-6.153263 -78.376046",
                    "type": "point"
                }
            },
            "partner_id": 484,
            "posted_date": "2021-05-02T06:50:17Z",
            "planned_expiration_date": "2021-06-01T06:50:17Z",
            "loan_amount": 550,
            "borrower_count": 1,
            "lender_count": 10,
            "bonus_credit_eligibility": true,
            "tags": [
                {
                    "name": "user_favorite",
                    "id": "4"
                },
                {
                    "name": "#First Loan",
                    "id": "5"
                },
                {
                    "name": "#Woman-Owned Business",
                    "id": "6"
                },
                {
                    "name": "#Parent",
                    "id": "16"
                },
                {
                    "name": "#Job Creator",
                    "id": "30"
                }
            ]
        },
        {
            "id": 2160775,
            "name": "Jos\u00e9 Santiago",
            "description": {
                "languages": [
                    "es",
                    "en"
                ]
            },
            "status": "fundraising",
            "funded_amount": 0,
            "basket_amount": 0,
            "image": {
                "id": 4291974,
                "template_id": 1
            },
            "activity": "Cattle",
            "sector": "Agriculture",
            "use": "to buy farming supplies to grow hay for feeding his cattle.",
            "location": {
                "country_code": "SV",
                "country": "El Salvador",
                "town": "Zacatecoluca",
                "geo": {
                    "level": "town",
                    "pairs": "13.512239 -88.869495",
                    "type": "point"
                }
            },
            "partner_id": 199,
            "posted_date": "2021-05-02T06:50:16Z",
            "planned_expiration_date": "2021-06-01T06:50:16Z",
            "loan_amount": 325,
            "borrower_count": 1,
            "lender_count": 0,
            "bonus_credit_eligibility": true,
            "tags": []
        },
        {
            "id": 2160777,
            "name": "Mar\u00eda Berenice",
            "description": {
                "languages": [
                    "es",
                    "en"
                ]
            },
            "status": "fundraising",
            "funded_amount": 25,
            "basket_amount": 0,
            "image": {
                "id": 4291977,
                "template_id": 1
            },
            "activity": "Clothing Sales",
            "sector": "Clothing",
            "themes": [
                "Youth",
                "Start-Up"
            ],
            "use": "to buy clothing to continue selling.",
            "location": {
                "country_code": "SV",
                "country": "El Salvador",
                "town": "Zacatecoluca",
                "geo": {
                    "level": "town",
                    "pairs": "13.512239 -88.869495",
                    "type": "point"
                }
            },
            "partner_id": 199,
            "posted_date": "2021-05-02T06:50:16Z",
            "planned_expiration_date": "2021-06-01T06:50:16Z",
            "loan_amount": 500,
            "borrower_count": 1,
            "lender_count": 1,
            "bonus_credit_eligibility": true,
            "tags": []
        },
        {
            "id": 2159790,
            "name": "Marvin Patricia",
            "description": {
                "languages": [
                    "es",
                    "en"
                ]
            },
            "status": "fundraising",
            "funded_amount": 0,
            "basket_amount": 0,
            "image": {
                "id": 4290865,
                "template_id": 1
            },
            "activity": "Butcher Shop",
            "sector": "Food",
            "use": "to buy a beef cow to butcher so that she can have inventory to sell.",
            "location": {
                "country_code": "SV",
                "country": "El Salvador",
                "geo": {
                    "level": "country",
                    "pairs": "13.833333 -88.916667",
                    "type": "point"
                }
            },
            "partner_id": 167,
            "posted_date": "2021-05-02T06:50:10Z",
            "planned_expiration_date": "2021-06-01T06:50:10Z",
            "loan_amount": 700,
            "borrower_count": 1,
            "lender_count": 0,
            "bonus_credit_eligibility": true,
            "tags": [
                {
                    "name": "#Woman-Owned Business",
                    "id": "6"
                },
                {
                    "name": "#Repeat Borrower",
                    "id": "28"
                }
            ]
        },
        {
            "id": 2160639,
            "name": "Whitney",
            "description": {
                "languages": [
                    "en"
                ]
            },
            "status": "fundraising",
            "funded_amount": 0,
            "basket_amount": 0,
            "image": {
                "id": 4291807,
                "template_id": 1
            },
            "activity": "Personal Products Sales",
            "sector": "Retail",
            "themes": [
                "Vulnerable Groups",
                "Youth"
            ],
            "use": "to purchase more shampoo, body lotion, hair oils, and perfumes to sell.",
            "location": {
                "country_code": "UG",
                "country": "Uganda",
                "town": "Matuga",
                "geo": {
                    "level": "town",
                    "pairs": "0.455301 32.520302",
                    "type": "point"
                }
            },
            "partner_id": 65,
            "posted_date": "2021-05-02T06:30:05Z",
            "planned_expiration_date": "2021-06-01T06:30:05Z",
            "loan_amount": 575,
            "borrower_count": 1,
            "lender_count": 0,
            "bonus_credit_eligibility": true,
            "tags": [
                {
                    "name": "user_favorite",
                    "id": "4"
                },
                {
                    "name": "#Woman-Owned Business",
                    "id": "6"
                }
            ]
        },
        {
            "id": 2160772,
            "name": "Maria Katherine",
            "description": {
                "languages": [
                    "es",
                    "en"
                ]
            },
            "status": "fundraising",
            "funded_amount": 0,
            "basket_amount": 0,
            "image": {
                "id": 4291972,
                "template_id": 1
            },
            "activity": "Food Production/Sales",
            "sector": "Food",
            "use": "to increase working capital and invest in supplies such as flour, eggs, vegetables, root vegetables, meats, soda drinks, plastic bags, straws, trays, etc.",
            "location": {
                "country_code": "CO",
                "country": "Colombia",
                "town": "Cartagena de Indias",
                "geo": {
                    "level": "town",
                    "pairs": "10.391049 -75.479426",
                    "type": "point"
                }
            },
            "partner_id": 154,
            "posted_date": "2021-05-02T06:10:10Z",
            "planned_expiration_date": "2021-06-01T06:10:10Z",
            "loan_amount": 875,
            "borrower_count": 1,
            "lender_count": 0,
            "bonus_credit_eligibility": false,
            "tags": []
        },
        {
            "id": 2159905,
            "name": "Ileana",
            "description": {
                "languages": [
                    "es",
                    "en"
                ]
            },
            "status": "fundraising",
            "funded_amount": 75,
            "basket_amount": 0,
            "image": {
                "id": 4291031,
                "template_id": 1
            },
            "activity": "Pigs",
            "sector": "Agriculture",
            "themes": [
                "Rural Exclusion"
            ],
            "use": "to buy two pigs and feed, as well as to pay for improvements to her pig pen.",
            "location": {
                "country_code": "NI",
                "country": "Nicaragua",
                "town": "Jinotega",
                "geo": {
                    "level": "town",
                    "pairs": "13.088391 -85.9994",
                    "type": "point"
                }
            },
            "partner_id": 507,
            "posted_date": "2021-05-02T05:10:12Z",
            "planned_expiration_date": "2021-06-01T05:10:12Z",
            "loan_amount": 250,
            "borrower_count": 1,
            "lender_count": 3,
            "bonus_credit_eligibility": false,
            "tags": [
                {
                    "name": "user_favorite",
                    "id": "4"
                },
                {
                    "name": "#Woman-Owned Business",
                    "id": "6"
                },
                {
                    "name": "#Animals",
                    "id": "11"
                },
                {
                    "name": "#Parent",
                    "id": "16"
                },
                {
                    "name": "#Repair Renew Replace",
                    "id": "39"
                }
            ]
        }
    ]
}
